module peasec.de/whatsmeow-native

go 1.19

require (
	github.com/mattn/go-sqlite3 v1.14.17
	github.com/mdp/qrterminal/v3 v3.1.1
	go.mau.fi/whatsmeow v0.0.0-20240106083317-757651400d8d
	google.golang.org/protobuf v1.31.0
)

require (
	filippo.io/edwards25519 v1.0.0 // indirect
	github.com/gorilla/websocket v1.5.0 // indirect
	go.mau.fi/libsignal v0.1.0 // indirect
	go.mau.fi/util v0.2.0 // indirect
	golang.org/x/crypto v0.15.0 // indirect
	rsc.io/qr v0.2.0 // indirect
)
